…
                            power = b$natural_gift_power,
                            size = b$size,
                            smoothness = b$smoothness,
                            soil_dryness = b$soil_dryness,
                            firmness.name = b$firmness$name,
                            flavor.name = b$flavors$flavor$name,
                            item = b$item,
                            natural_gift_power= b$natural_gift_power)
    allberry <- rbind(allberry, berryinfo)
  }
  allberryinfotbl <- as_tibble(allberry)
  allberryinfotbl
```

    ## # A tibble: 320 x 13
    ##    berry.id berry.name max_harvest growth_time power  size smoothness soil_dryness firmness.name flavor.name item.name    item.url        
    ##       <int> <chr>            <int>       <int> <int> <int>      <int>        <int> <chr>         <chr>       <chr>        <chr>           
    ##  1        1 cheri                5           3    60    20         25           15 soft          spicy       cheri-berry  https://pokeapi~
    ##  2        1 cheri                5           3    60    20         25           15 soft          dry         cheri-berry  https://pokeapi~
    ##  3        1 cheri                5           3    60    20         25           15 soft          sweet       cheri-berry  https://pokeapi~
    ##  4        1 cheri                5           3    60    20         25           15 soft          bitter      cheri-berry  https://pokeapi~
    ##  5        1 cheri                5           3    60    20         25           15 soft          sour        cheri-berry  https://pokeapi~
    ##  6        2 chesto               5           3    60    80         25           15 super-hard    spicy       chesto-berry https://pokeapi~
    ##  7        2 chesto               5           3    60    80         25           15 super-hard    dry         chesto-berry https://pokeapi~
    ##  8        2 chesto               5           3    60    80         25           15 super-hard    sweet       chesto-berry https://pokeapi~
    ##  9        2 chesto               5           3    60    80         25           15 super-hard    bitter      chesto-berry https://pokeapi~
    ## 10        2 chesto               5           3    60    80         25           15 super-hard    sour        chesto-berry https://pokeapi~
    ## # ... with 310 more rows, and 1 more variable: natural_gift_power <int>
…
